<svg xmlns="http://www.w3.org/2000/svg" xmlns:xlink="http://www.w3.org/1999/xlink" width="24" height="24" viewBox="0 0 24 24">
    <defs>
        <filter id="15ul4h6kua" width="140%" height="107.4%" x="-20%" y="-3.7%" filterUnits="objectBoundingBox">
            <feOffset dy="2" in="SourceAlpha" result="shadowOffsetOuter1"/>
            <feGaussianBlur in="shadowOffsetOuter1" result="shadowBlurOuter1" stdDeviation="5"/>
            <feColorMatrix in="shadowBlurOuter1" result="shadowMatrixOuter1" values="0 0 0 0 0.882352941 0 0 0 0 0.88627451 0 0 0 0 0.980392157 0 0 0 0.703780594 0"/>
            <feMerge>
                <feMergeNode in="shadowMatrixOuter1"/>
                <feMergeNode in="SourceGraphic"/>
            </feMerge>
        </filter>
        <path id="6q2mfcoazb" d="M21 16.5c1.105 0 2 .895 2 2v3c0 1.105-.895 2-2 2h-3c-1.105 0-2-.895-2-2v-3c0-1.105.895-2 2-2h3zm-7.5 2c.828 0 1.5.672 1.5 1.5s-.672 1.5-1.5 1.5h-11c-.828 0-1.5-.672-1.5-1.5s.672-1.5 1.5-1.5h11zm7.5 0h-3v3h3v-3zm0-10c1.105 0 2 .895 2 2v3c0 1.105-.895 2-2 2h-3c-1.105 0-2-.895-2-2v-3c0-1.105.895-2 2-2h3zm-7.5 2c.828 0 1.5.672 1.5 1.5s-.672 1.5-1.5 1.5h-11c-.828 0-1.5-.672-1.5-1.5s.672-1.5 1.5-1.5h11zm7.5 0h-3v3h3v-3zm0-10c1.105 0 2 .895 2 2v3c0 1.105-.895 2-2 2h-3c-1.105 0-2-.895-2-2v-3c0-1.105.895-2 2-2h3zm-7.5 2c.828 0 1.5.672 1.5 1.5s-.672 1.5-1.5 1.5h-11C1.672 5.5 1 4.828 1 4s.672-1.5 1.5-1.5h11zm7.5 0h-3v3h3v-3z"/>
    </defs>
    <g fill="none" fill-rule="evenodd" filter="url(#15ul4h6kua)" transform="translate(-46 -161)">
        <g transform="translate(46 161)">
            <mask id="feiutk36lc" fill="#fff">
                <use xlink:href="#6q2mfcoazb"/>
            </mask>
            <use fill="#26282C" xlink:href="#6q2mfcoazb"/>
            <g mask="url(#feiutk36lc)">
                <path fill="#26282C" d="M0 0H24V24H0z"/>
                <path fill="#0A0B17" d="M0 0H24V24H0z"/>
            </g>
        </g>
    </g>
</svg>
